06-More data transformation
…
Select rows with date 2018-09-18 and return the entries in descending order of D0.

df_levels %>% filter(Date == "2018-09-18") %>% arrange(desc(D0))

Which county experienced the most number of weeks with 100% land area in D4?

df_levels %>% 
filter(D4 == 100) %>% 
group_by(County) %>% 
summarize(count = n()) %>%
arrange(desc(count))

## # A tibble: 22 x 2
##    County               count
##    <chr>                <int>
##  1 Santa Barbara County    69
##  2 Ventura County          69
##  3 Fresno County           31
##  4 Kings County            31
##  5 Madera County           31
##  6 Mariposa County         31
##  7 Merced County           31
##  8 San Joaquin County      31
##  9 Stanislaus County       31
## 10 Tulare County           31
## #  with 12 more rows
…
