Session 7 Practice: Importing, transforming and plotting data
…
Using tidyrs separate function, separate the game column in df2 to a home column which has the name of the home team, and an away column which has the name of the away team.

library(tidyr)
df2 %>%
    separate(game, into = c("home", "away"))

## # A tibble: 57,304 x 11
##    end_result home  away  game_id period player playoffs score season
##    <chr>      <chr> <chr> <chr>    <dbl> <chr>  <chr>    <chr> <chr> 
##  1 106 - 94   DET   ATL   400827      1 Marcu regular  5 - 4 2015 
##  2 106 - 94   DET   ATL   400827      1 Marcu regular  5 - 4 2015 
##  3 106 - 94   DET   ATL   400827      1 Andre regular  10 - 2015 
##  4 106 - 94   DET   ATL   400827      1 Andre regular  10 - 2015 
##  5 106 - 94   DET   ATL   400827      1 Paul  regular  15 - 2015 
##  6 106 - 94   DET   ATL   400827      1 Paul  regular  15 - 2015 
##  7 106 - 94   DET   ATL   400827      1 Reggi regular  23 - 2015 
##  8 106 - 94   DET   ATL   400827      2 Al Ho regular  31 - 2015 
##  9 106 - 94   DET   ATL   400827      2 Al Ho regular  31 - 2015 
## 10 106 - 94   DET   ATL   400827      3 Kenta regular  56 - 2015 
## #  with 57,294 more rows, and 2 more variables: shot_made <dbl>,
## #   time <time>
