05-Data Transformation
…
Next, use the ?, str() and View() functions to examine the dataset:

?flights
str(flights)
View(flights)

This dataset contains ~336,000 flights that departed from New York City (all 3 airports) in 2013.

Next, just key in the dataset name (i.e. flights):

flights

## # A tibble: 336,776 x 19
##     year month   day dep_time sched_dep_time dep_delay arr_time
##    <int> <int> <int>    <int>          <int>     <dbl>    <int>
##  1  2013     1     1      517            515         2      830
##  2  2013     1     1      533            529         4      850
##  3  2013     1     1      542            540         2      923
##  4  2013     1     1      544            545        -1     1004
##  5  2013     1     1      554            600        -6      812
##  6  2013     1     1      554            558        -4      740
##  7  2013     1     1      555            600        -5      913
##  8  2013     1     1      557            600        -3      709
##  9  2013     1     1      557            600        -3      838
## 10  2013     1     1      558            600        -2      753
## #  with 336,766 more rows, and 12 more variables: sched_arr_time <int>,
## #   arr_delay <dbl>, carrier <chr>, flight <int>, tailnum <chr>,
## #   origin <chr>, dest <chr>, air_time <dbl>, distance <dbl>, hour <dbl>,
## #   minute <dbl>, time_hour <dttm>

Did you notice that the output format is different from what weve seen before? Thats because previous datasets were in a data structure that we called data frames, while this is in a data structure called a tibble. Dont worry about the difference: for all intents and purposes, data frames are the same as tibbles.

filter() and logical operations

Since we are here in Stanford, we may only be interested in flights from NYC to SFO. We can use the filter() verb to achieve this:

flights %>% filter(dest == "SFO")

## # A tibble: 13,331 x 19
##     year month   day dep_time sched_dep_time dep_delay arr_time
##    <int> <int> <int>    <int>          <int>     <dbl>    <int>
##  1  2013     1     1      558            600        -2      923
##  2  2013     1     1      611            600        11      945
##  3  2013     1     1      655            700        -5     1037
##  4  2013     1     1      729            730        -1     1049
##  5  2013     1     1      734            737        -3     1047
##  6  2013     1     1      745            745         0     1135
##  7  2013     1     1      746            746         0     1119
##  8  2013     1     1      803            800         3     1132
##  9  2013     1     1      826            817         9     1145
## 10  2013     1     1     1029           1030        -1     1427
## #  with 13,321 more rows, and 12 more variables: sched_arr_time <int>,
## #   arr_delay <dbl>, carrier <chr>, flight <int>, tailnum <chr>,
## #   origin <chr>, dest <chr>, air_time <dbl>, distance <dbl>, hour <dbl>,
## #   minute <dbl>, time_hour <dttm>

Note that we used == to test whether dest was equal to "SFO". DO NOT USE =. In programming, = usually means variable assignment.

There are two other international airports near Stanford, San Jose International Airport (SJC) and Oakland International Airport (OAK). So if we want to analyze flights that people take to get from NYC to Stanford, we should probably include these flights.

flights %>% filter(dest == "SFO" | dest == "SJC" | dest == "OAK")

## # A tibble: 13,972 x 19
##     year month   day dep_time sched_dep_time dep_delay arr_time
##    <int> <int> <int>    <int>          <int>     <dbl>    <int>
##  1  2013     1     1      558            600        -2      923
##  2  2013     1     1      611            600        11      945
##  3  2013     1     1      655            700        -5     1037
##  4  2013     1     1      729            730        -1     1049
##  5  2013     1     1      734            737        -3     1047
##  6  2013     1     1      745            745         0     1135
##  7  2013     1     1      746            746         0     1119
##  8  2013     1     1      803            800         3     1132
##  9  2013     1     1      826            817         9     1145
## 10  2013     1     1     1029           1030        -1     1427
## #  with 13,962 more rows, and 12 more variables: sched_arr_time <int>,
## #   arr_delay <dbl>, carrier <chr>, flight <int>, tailnum <chr>,
## #   origin <chr>, dest <chr>, air_time <dbl>, distance <dbl>, hour <dbl>,
## #   minute <dbl>, time_hour <dttm>

The command above filters the dataset and prints it out, but does not retain the output. To keep the extracted dataset for further analysis, we have to assign it to a variable:

Stanford <- flights %>% filter(dest == "SFO" | dest == "SJC" | dest == "OAK")

We now have flights from NYC to SFO/SJC/OAK for the entire year. Lets say that Im only interested in flights when school is in session (Sep - Jun). Since month is a numeric variable, we could do this:

Stanford %>% filter(month <= 6 | month >= 9)

## # A tibble: 11,351 x 19
##     year month   day dep_time sched_dep_time dep_delay arr_time
##    <int> <int> <int>    <int>          <int>     <dbl>    <int>
##  1  2013     1     1      558            600        -2      923
##  2  2013     1     1      611            600        11      945
##  3  2013     1     1      655            700        -5     1037
##  4  2013     1     1      729            730        -1     1049
##  5  2013     1     1      734            737        -3     1047
##  6  2013     1     1      745            745         0     1135
##  7  2013     1     1      746            746         0     1119
##  8  2013     1     1      803            800         3     1132
##  9  2013     1     1      826            817         9     1145
## 10  2013     1     1     1029           1030        -1     1427
## #  with 11,341 more rows, and 12 more variables: sched_arr_time <int>,
## #   arr_delay <dbl>, carrier <chr>, flight <int>, tailnum <chr>,
## #   origin <chr>, dest <chr>, air_time <dbl>, distance <dbl>, hour <dbl>,
## #   minute <dbl>, time_hour <dttm>

or this:

Stanford %>% filter(month != 7 & month != 8)

## # A tibble: 11,351 x 19
##     year month   day dep_time sched_dep_time dep_delay arr_time
##    <int> <int> <int>    <int>          <int>     <dbl>    <int>
##  1  2013     1     1      558            600        -2      923
##  2  2013     1     1      611            600        11      945
##  3  2013     1     1      655            700        -5     1037
##  4  2013     1     1      729            730        -1     1049
##  5  2013     1     1      734            737        -3     1047
##  6  2013     1     1      745            745         0     1135
##  7  2013     1     1      746            746         0     1119
##  8  2013     1     1      803            800         3     1132
##  9  2013     1     1      826            817         9     1145
## 10  2013     1     1     1029           1030        -1     1427
## #  with 11,341 more rows, and 12 more variables: sched_arr_time <int>,
## #   arr_delay <dbl>, carrier <chr>, flight <int>, tailnum <chr>,
## #   origin <chr>, dest <chr>, air_time <dbl>, distance <dbl>, hour <dbl>,
## #   minute <dbl>, time_hour <dttm>

select() & rename()

Lets return to the Stanford dataset (i.e.all flights from NYC to SFO/SJC/OAK). Notice that we have a total of 19 variables. Sometimes our datasets will have hundreds or thousands of variables! Not all of them may be of interest to us. select() allows us to choose a subset of these variables to form a smaller dataset that may be easier to work with.

19 is a pretty small number so we could do our data analysis without dropping any columns, but lets just try out some commands to get a feel for how select() works.

We can select columns by name: if we just want the year, month and day columns, we can use the following code:

Stanford %>% select(year, month, day)

## # A tibble: 13,972 x 3
##     year month   day
##    <int> <int> <int>
##  1  2013     1     1
##  2  2013     1     1
##  3  2013     1     1
##  4  2013     1     1
##  5  2013     1     1
##  6  2013     1     1
##  7  2013     1     1
##  8  2013     1     1
##  9  2013     1     1
## 10  2013     1     1
## #  with 13,962 more rows

If the columns we want form a contiguous block, then we can use simpler syntax. To select rows from year to arr_delay (inclusive):

Stanford %>% select(year:arr_delay) 

## # A tibble: 13,972 x 9
##     year month   day dep_time sched_dep_time dep_delay arr_time
##    <int> <int> <int>    <int>          <int>     <dbl>    <int>
##  1  2013     1     1      558            600        -2      923
##  2  2013     1     1      611            600        11      945
##  3  2013     1     1      655            700        -5     1037
##  4  2013     1     1      729            730        -1     1049
##  5  2013     1     1      734            737        -3     1047
##  6  2013     1     1      745            745         0     1135
##  7  2013     1     1      746            746         0     1119
##  8  2013     1     1      803            800         3     1132
##  9  2013     1     1      826            817         9     1145
## 10  2013     1     1     1029           1030        -1     1427
## #  with 13,962 more rows, and 2 more variables: sched_arr_time <int>,
## #   arr_delay <dbl>

In this example, the year column is superfluous, since all the values are all 2013. The code below drops the year column, keeping the rest:

Stanford %>% select(-year)

## # A tibble: 13,972 x 18
##    month   day dep_time sched_dep_time dep_delay arr_time sched_arr_time
##    <int> <int>    <int>          <int>     <dbl>    <int>          <int>
##  1     1     1      558            600        -2      923            937
##  2     1     1      611            600        11      945            931
##  3     1     1      655            700        -5     1037           1045
##  4     1     1      729            730        -1     1049           1115
##  5     1     1      734            737        -3     1047           1113
##  6     1     1      745            745         0     1135           1125
##  7     1     1      746            746         0     1119           1129
##  8     1     1      803            800         3     1132           1144
##  9     1     1      826            817         9     1145           1158
## 10     1     1     1029           1030        -1     1427           1355
## #  with 13,962 more rows, and 11 more variables: arr_delay <dbl>,
## #   carrier <chr>, flight <int>, tailnum <chr>, origin <chr>, dest <chr>,
## #   air_time <dbl>, distance <dbl>, hour <dbl>, minute <dbl>,
## #   time_hour <dttm>

select() can also be used to rearrange the columns. If, for example, I wanted to have the first 3 columns be day, month, year instead of year, month, day:

Stanford %>% select(day, month, year, everything())

## # A tibble: 13,972 x 19
##      day month  year dep_time sched_dep_time dep_delay arr_time
##    <int> <int> <int>    <int>          <int>     <dbl>    <int>
##  1     1     1  2013      558            600        -2      923
##  2     1     1  2013      611            600        11      945
##  3     1     1  2013      655            700        -5     1037
##  4     1     1  2013      729            730        -1     1049
##  5     1     1  2013      734            737        -3     1047
##  6     1     1  2013      745            745         0     1135
##  7     1     1  2013      746            746         0     1119
##  8     1     1  2013      803            800         3     1132
##  9     1     1  2013      826            817         9     1145
## 10     1     1  2013     1029           1030        -1     1427
## #  with 13,962 more rows, and 12 more variables: sched_arr_time <int>,
## #   arr_delay <dbl>, carrier <chr>, flight <int>, tailnum <chr>,
## #   origin <chr>, dest <chr>, air_time <dbl>, distance <dbl>, hour <dbl>,
## #   minute <dbl>, time_hour <dttm>

To rename column names, use the rename() function:

Stanford %>% rename(tail_num = tailnum)

## # A tibble: 13,972 x 19
##     year month   day dep_time sched_dep_time dep_delay arr_time
##    <int> <int> <int>    <int>          <int>     <dbl>    <int>
##  1  2013     1     1      558            600        -2      923
##  2  2013     1     1      611            600        11      945
##  3  2013     1     1      655            700        -5     1037
##  4  2013     1     1      729            730        -1     1049
##  5  2013     1     1      734            737        -3     1047
##  6  2013     1     1      745            745         0     1135
##  7  2013     1     1      746            746         0     1119
##  8  2013     1     1      803            800         3     1132
##  9  2013     1     1      826            817         9     1145
## 10  2013     1     1     1029           1030        -1     1427
## #  with 13,962 more rows, and 12 more variables: sched_arr_time <int>,
## #   arr_delay <dbl>, carrier <chr>, flight <int>, tail_num <chr>,
## #   origin <chr>, dest <chr>, air_time <dbl>, distance <dbl>, hour <dbl>,
## #   minute <dbl>, time_hour <dttm>

arrange()

Often we get datasets which are not in order, or in an order which we are not interested in. The arrange() function allows us to reorder the rows according to an order we want.

The Stanford dataset looks like it is already ordered by actual departure time. Perhaps Im most interested in the flights which had the longest departure delay. I could sort the dataset as follows:

Stanford %>% arrange(dep_delay)

## # A tibble: 13,972 x 19
##     year month   day dep_time sched_dep_time dep_delay arr_time
##    <int> <int> <int>    <int>          <int>     <dbl>    <int>
##  1  2013    12    11      710            730       -20     1039
##  2  2013    11    16      712            730       -18     1025
##  3  2013     9    11      712            730       -18      946
##  4  2013    11    19      713            730       -17     1036
##  5  2013     7    14     1151           1208       -17     1450
##  6  2013    12    10      714            730       -16     1104
##  7  2013     3    29     1050           1106       -16     1359
##  8  2013     4    20     1420           1436       -16     1737
##  9  2013     5    20      719            735       -16      951
## 10  2013     1    23      545            600       -15      948
## #  with 13,962 more rows, and 12 more variables: sched_arr_time <int>,
## #   arr_delay <dbl>, carrier <chr>, flight <int>, tailnum <chr>,
## #   origin <chr>, dest <chr>, air_time <dbl>, distance <dbl>, hour <dbl>,
## #   minute <dbl>, time_hour <dttm>

Looks like the flights with the shortest delay are at the top instead! To re-order by descending order, use desc():

Stanford %>% arrange(desc(dep_delay))

## # A tibble: 13,972 x 19
##     year month   day dep_time sched_dep_time dep_delay arr_time
##    <int> <int> <int>    <int>          <int>     <dbl>    <int>
##  1  2013     9    20     1139           1845      1014     1457
##  2  2013     7     7     2123           1030       653       17
##  3  2013     7     7     2059           1030       629      106
##  4  2013     7     6      149           1600       589      456
##  5  2013     7    10      133           1800       453      455
##  6  2013     7    10     2342           1630       432      312
##  7  2013     7     7     2204           1525       399      107
##  8  2013     7     7     2306           1630       396      250
##  9  2013     6    23     1833           1200       393       NA
## 10  2013     7    10     2232           1609       383      138
## #  with 13,962 more rows, and 12 more variables: sched_arr_time <int>,
## #   arr_delay <dbl>, carrier <chr>, flight <int>, tailnum <chr>,
## #   origin <chr>, dest <chr>, air_time <dbl>, distance <dbl>, hour <dbl>,
## #   minute <dbl>, time_hour <dttm>
…
arrange() also allows us to filter by more than one column, in that each additional column will be used to break ties in the values of the preceding ones. For example, flights seems to be sorted by year, month, day, and actual departure time. If I wanted to sort by year, month, day and scheduled departure time instead:

Stanford %>% arrange(year, month, day, sched_dep_time)

## # A tibble: 13,972 x 19
##     year month   day dep_time sched_dep_time dep_delay arr_time
##    <int> <int> <int>    <int>          <int>     <dbl>    <int>
##  1  2013     1     1      558            600        -2      923
##  2  2013     1     1      611            600        11      945
##  3  2013     1     1      655            700        -5     1037
##  4  2013     1     1      729            730        -1     1049
##  5  2013     1     1      734            737        -3     1047
##  6  2013     1     1      745            745         0     1135
##  7  2013     1     1      746            746         0     1119
##  8  2013     1     1      803            800         3     1132
##  9  2013     1     1      826            817         9     1145
## 10  2013     1     1     1029           1030        -1     1427
## #  with 13,962 more rows, and 12 more variables: sched_arr_time <int>,
## #   arr_delay <dbl>, carrier <chr>, flight <int>, tailnum <chr>,
## #   origin <chr>, dest <chr>, air_time <dbl>, distance <dbl>, hour <dbl>,
## #   minute <dbl>, time_hour <dttm>

mutate()

In this dataset we have both the time the plane spent in the air (air_time) and distance traveled (distance). From these two pieces of information, we can figure out the average speed of the plane for the flight using mutate().

mutate() adds new columns to the end of the dataset, so lets work with a smaller dataset for now so that we can see the values of our new column.

Stanford_small <- Stanford %>% 
    select(month, carrier, origin, dest, air_time, distance) %>%
    mutate(speed = distance / air_time * 60)
Stanford_small

## # A tibble: 13,972 x 7
##    month carrier origin dest  air_time distance speed
##    <int> <chr>   <chr>  <chr>    <dbl>    <dbl> <dbl>
##  1     1 UA      EWR    SFO        361     2565  426.
##  2     1 UA      JFK    SFO        366     2586  424.
##  3     1 DL      JFK    SFO        362     2586  429.
##  4     1 VX      JFK    SFO        356     2586  436.
##  5     1 B6      JFK    SFO        350     2586  443.
##  6     1 AA      JFK    SFO        378     2586  410.
##  7     1 UA      EWR    SFO        373     2565  413.
##  8     1 UA      JFK    SFO        369     2586  420.
##  9     1 UA      EWR    SFO        357     2565  431.
## 10     1 AA      JFK    SFO        389     2586  399.
## #  with 13,962 more rows

mutate() can be used to create several new variables at once. For example, the following code is valid syntax:

Stanford_small %>% mutate(speed_miles_per_min = air_time / distance,
                   speed_miles_per_hour = speed_miles_per_min * 60)

## # A tibble: 13,972 x 9
##    month carrier origin dest  air_time distance speed speed_miles_per
##    <int> <chr>   <chr>  <chr>    <dbl>    <dbl> <dbl>            <dbl>
##  1     1 UA      EWR    SFO        361     2565  426.            0.141
##  2     1 UA      JFK    SFO        366     2586  424.            0.142
##  3     1 DL      JFK    SFO        362     2586  429.            0.140
##  4     1 VX      JFK    SFO        356     2586  436.            0.138
##  5     1 B6      JFK    SFO        350     2586  443.            0.135
##  6     1 AA      JFK    SFO        378     2586  410.            0.146
##  7     1 UA      EWR    SFO        373     2565  413.            0.145
##  8     1 UA      JFK    SFO        369     2586  420.            0.143
##  9     1 UA      EWR    SFO        357     2565  431.            0.139
## 10     1 AA      JFK    SFO        389     2586  399.            0.150
## #  with 13,962 more rows, and 1 more variable: speed_miles_per_hour <dbl>
…
