San Francisco Airbnb Analysis - September 2018
…
## # A tibble: 1 x 1
##   distinct
##      <int>
## 1       36

Now that we know we are working with 36 neighbourhoods, I would like to group my data based on neighborhood, and find the average price per night in that neighborhood and the average availability (number of days avaliable out of 365 days in the year). I also filtered by data to only include listings that have 1 or more reviews, as I feel that the listings with zero reviews could skew my data due to new users potentially setting prices very differently than other hosts.

nbhood <- df %>% group_by(neighbourhood) %>% filter(number_of_reviews > 0) %>% summarize(count = n(), price = mean(price), avail = mean(availability_365))

Now, I would like to determine the neighborhood with the best pricing, so I would like to sort my price column in descending order.

nbhood %>% arrange(price)

## # A tibble: 36 x 4
##    neighbourhood         count price avail
##    <chr>                 <int> <dbl> <dbl>
##  1 Presidio                  1  105   350 
##  2 Lakeshore                43  106.  217.
##  3 Bayview                 102  115.  161.
##  4 Crocker Amazon           31  119.  187.
##  5 Excelsior               125  122.  161.
##  6 Ocean View               90  127.  150.
##  7 Visitacion Valley        58  137.  138.
##  8 Outer Sunset            231  143.  149.
##  9 Outer Mission           134  148.  165.
## 10 Downtown/Civic Center   337  157.  128.
## # ... with 26 more rows

This yields an interesting result - the neighborhood with the best nightly price from the listings in September of 2018 is the Presidio, but there is only one listing. Because of this, I will discredit this row ; I do not find this to be an accurate result when looking at best priced neighborhoods, and looking at a count of higher than 5 would yield more substantial results. The second best price was Lakeshore, with 43 listings and an average price of $106 per night. After, Bayview with 102 listings and $115 per night.

nbhood <- nbhood %>% filter(count > 5) %>% arrange(price)
nbhood

## # A tibble: 35 x 4
##    neighbourhood         count price avail
##    <chr>                 <int> <dbl> <dbl>
##  1 Lakeshore                43  106.  217.
##  2 Bayview                 102  115.  161.
##  3 Crocker Amazon           31  119.  187.
##  4 Excelsior               125  122.  161.
##  5 Ocean View               90  127.  150.
##  6 Visitacion Valley        58  137.  138.
##  7 Outer Sunset            231  143.  149.
##  8 Outer Mission           134  148.  165.
##  9 Downtown/Civic Center   337  157.  128.
## 10 Bernal Heights          335  174.  119.
## # ... with 25 more rows
…
